{
    "$schema": "http://json-schema.org/draft-04/schema#",
    "packagetype": "must be finish",
    "version":
	{
		"description": "version of standard",
		"type": "integer"
	},
    "content": 
	{
		"type": "object",
        "properties": 
		{
            "state": {"type": "string"}
        },
		"required": ["name"]
    }
}