{
  "$schema": "http://json-schema.org/draft-04/schema#",
  "packagetype": "must be ready",
  "version":
  {
    "description": "version of standard",
    "type": "integer"
  },
  "content":
  {
    "type": "object",
    "properties":
    {
      "redcode": {"type": "string"}
    },
    "required": ["redcode"]
  }
}