{
    "$schema": "http://json-schema.org/draft-04/schema#",
    "packagetype": "must be start",
    "version":
	{
		"description": "version of standard",
		"type": "integer"
	},
    "content": 
	{
		"type": "object",
        "properties": 
		{
            "players": {"type": "integer"},
            "fullState": {"type": "string"}
        },
		"required": ["players", "coreSize"]
    }
}